{
    "@class": "com.kony.gen.viz.model.component.KVizBrowser",
    "DNDConfig": null,
    "_height_": {
        "type": "string",
        "value": "90%"
    },
    "_left_": {
        "type": "string",
        "value": "0"
    },
    "_margin_": [
        0,
        0,
        0,
        0
    ],
    "_padding_": [
        0,
        0,
        0,
        0
    ],
    "_top_": {
        "type": "string",
        "value": "10%"
    },
    "_type_": 4,
    "_width_": {
        "type": "string",
        "value": "100%"
    },
    "androidwearos": {
        "render": false
    },
    "canUpdateUI": true,
    "containerweight": 69,
    "detecttelnumber": true,
    "htmlstring": "Browser",
    "id": "browserYahoo",
    "ide_onSuccess": "AS_Browser_i5b2beed45c94d65a2debdfbb681e19b",
    "info": null,
    "iscustomlayout": false,
    "isvisible": true,
    "kuid": "f596e63e6eae4662bfd94c3b3c90aebd",
    "margininpixel": false,
    "method": "get",
    "name": "kony.ui.Browser",
    "paddinginpixel": false,
    "parent": "flxBrowser",
    "pf": "Form1",
    "requesturlconfig": {
        "URL": "https://google.com",
        "requestMethod": "get"
    },
    "retaincontentalignment": false,
    "retainflexpositionproperties": false,
    "screenlevelwidget": false,
    "url": "",
    "wType": "Browser"
}