{
    "AS_Label_cb86b790d3f64ae083e505e8826e739b": {
        "id": "AS_Label_cb86b790d3f64ae083e505e8826e739b",
        "type": "ACTION_SEQUENCE",
        "params": [{
            "datatype": "collection",
            "name": "eventobject"
        }, {
            "datatype": "string",
            "name": "x"
        }, {
            "datatype": "string",
            "name": "y"
        }],
        "contextObj": {
            "name": "Form1",
            "type": "forms",
            "platform": "",
            "KUID": "d342ef4414d14c26b05b058fef1d3010"
        },
        "language": "js",
        "actions": [{
            "id": "INVOKE_FUNCTION__i144acb2e5034e659d1f2bb660de42d8",
            "type": "INVOKE_FUNCTION",
            "sequenceKUID": "clearHistory",
            "display": "clearHistory",
            "inputparams": [{
                "name": "browser"
            }],
            "parentId": null,
            "callbackType": null,
            "disabled": null,
            "source": "controller"
        }]
    }
}